\relax 
\select@language{english}
\@writefile{toc}{\select@language{english}}
\@writefile{lof}{\select@language{english}}
\@writefile{lot}{\select@language{english}}
\citation{Suderman2013}
\citation{toft2015islamists}
\citation{Bardwell2007}
\citation{Hlavacek2006}
\citation{Chylek2014}
\@writefile{toc}{\contentsline {section}{\numberline {1}Introduction and project motivations}{5}}
\@writefile{toc}{\contentsline {section}{\numberline {2}Working with example}{5}}
\@writefile{toc}{\contentsline {subsection}{\numberline {2.1}Problem view: combinatorial explosion of cell signalling systems}{5}}
\citation{Lopez2013}
\citation{Danos2007}
\citation{Faeder2009}
\citation{Suderman2013}
\citation{Majumdar2014}
\citation{Dixit2014}
\citation{Levchenko2000}
\citation{Dixit2014}
\citation{Yu2008}
\citation{Majumdar2014}
\citation{Suderman2013}
\@writefile{toc}{\contentsline {subsection}{\numberline {2.2}Yeast pheromone response pathway model}{6}}
\citation{Suderman2013}
\citation{Suderman2013}
\citation{Suderman2013}
\@writefile{lof}{\contentsline {figure}{\numberline {1}{\ignorespaces A: Usual scheme of hierarchically structured molecular machines B: Potential combinations of complexes appearing over the simulation. The red-arrow path represents the possible way of construction of decamer complex. Source: \cite  {Suderman2013}\relax }}{7}}
\providecommand*\caption@xref[2]{\@setref\relax\@undefined{#1}}
\newlabel{}{{1}{7}}
\@writefile{toc}{\contentsline {subsection}{\numberline {2.3}Rule-based modelling}{7}}
\citation{Danos2007}
\citation{Hlavacek2006}
\citation{Lopez2013}
\citation{Liu2012}
\citation{Danos2007}
\citation{Feret2012}
\@writefile{lof}{\contentsline {figure}{\numberline {2}{\ignorespaces Contact map defined without running the simulation with KaSa software accompanying KaSim4.0 simulation tool. Yellow circles denote agents sites, green circles agent states, and edges all potential connections between species.\relax }}{9}}
\newlabel{fig:contactmap}{{2}{9}}
\@writefile{lof}{\contentsline {figure}{\numberline {3}{\ignorespaces Flux map for pheromone pathway model in steady state simulated with KaSim4.0 \relax }}{9}}
\newlabel{fig:fluxmap}{{3}{9}}
\@writefile{toc}{\contentsline {subsection}{\numberline {2.4}Datasets and simulations}{10}}
\newlabel{sec:datasets}{{2.4}{10}}
\@writefile{toc}{\contentsline {paragraph}{\numberline {2.4.0.1}Perturbed model}{10}}
\citation{Chylek2014}
\citation{Gillespie2007}
\citation{Hogg2014}
\citation{Agnes2014}
\newlabel{sec:simulator}{{2.4.0.2}{11}}
\@writefile{toc}{\contentsline {paragraph}{\numberline {2.4.0.2}Simulator}{11}}
\@writefile{toc}{\contentsline {section}{\numberline {3}Applied methods and results}{11}}
\@writefile{toc}{\contentsline {subsection}{\numberline {3.1}Correlation Explanation}{11}}
\@writefile{toc}{\contentsline {subsubsection}{\numberline {3.1.1}Choice rationales}{11}}
\newlabel{sec:corexmotivation}{{3.1.1}{11}}
\@writefile{lof}{\contentsline {figure}{\numberline {4}{\ignorespaces Model dynamics in unperturbed and perturbed states for characteristic protein species. The perturbed ensemble model showed a decrease in Fus3 activation (Fus3PP) being a key observation of the combinatorial inhibition. As we can see, the synthesis of St4, which happens in the nucleus, was inhibited under perturbed state (plot with a flat line).\relax }}{12}}
\newlabel{fig:dynamics}{{4}{12}}
\citation{Pepke2015}
\citation{Jin2010}
\citation{NIPS2014_5580}
\citation{NIPS2014_5580}
\citation{steeg2015corex_theory}
\@writefile{toc}{\contentsline {subsubsection}{\numberline {3.1.2}Method description}{13}}
\citation{NIPS2014_5580}
\citation{kraskov2004estimating}
\citation{suzuki2008approximating}
\citation{pal2010estimation}
\citation{shuyang2015MI}
\citation{NIPS2014_5580}
\citation{steeg2015corex_theory}
\citation{NIPS2014_5580}
\citation{steeg2015corex_theory}
\citation{Suderman2013}
\@writefile{toc}{\contentsline {subsubsection}{\numberline {3.1.3}Results}{15}}
\@writefile{lof}{\contentsline {figure}{\numberline {5}{\ignorespaces Result of 31-variable dataset \textbf  {without} perturbation. Intrinsic dimensionality was found to be 6. Variable numbers are shown in the middle node of each group. Edge weights leading from a group centre to its member are dictated by its explanatory contribution to remaining group members\relax }}{16}}
\newlabel{fig:unpert}{{5}{16}}
\@writefile{lof}{\contentsline {figure}{\numberline {6}{\ignorespaces Result of 31-variable dataset \textbf  {with} perturbation. Intrinsic dimensionality was found to be 6. Variable numbers are shown in the middle node of each group. Edge weights leading from a group centre to its member are dictated by its explanatory contribution to remaining group members\relax }}{17}}
\newlabel{fig:pert}{{6}{17}}
\citation{Feret2012}
\@writefile{toc}{\contentsline {subsubsection}{\numberline {3.1.4}Interpretation and analysis}{18}}
\citation{hegger1999practical}
\citation{eckmann1987recurrence}
\@writefile{lof}{\contentsline {figure}{\numberline {7}{\ignorespaces On the left, a fragment of unperturbed data-tree with Group '0'. On the right, the process diagram for a comparison. A biological interpretation of the strongest group '0' refers to the most important steps indicating critical events in the successful signal propagation. As the authors argued, the assembly of decamer involving Ste5 dimerization does not belong to the most crucial events guaranteeing the signal transfer.\relax }}{19}}
\newlabel{fig:biounpert1}{{7}{19}}
\@writefile{toc}{\contentsline {subsection}{\numberline {3.2}Chaos Time Series Analysis}{19}}
\@writefile{lof}{\contentsline {figure}{\numberline {8}{\ignorespaces On the left, a fragment of unperturbed data-tree with Group '1'. On the right, the process diagram for a comparison. The second highly scored group indicates less vital events, related to dimerization, and the impact of Kss1 kinase on the Ste4 activation.\relax }}{20}}
\newlabel{fig:biounpert2}{{8}{20}}
\@writefile{lof}{\contentsline {figure}{\numberline {9}{\ignorespaces On the left, a fragment of perturbed data-tree with Group '0'. On the right, the process diagram for a comparison. The strongest group indicates the earliest events located upstream to the Fus3 poshorylation (observable called Fus3PP), preceding the complexation step\relax }}{21}}
\newlabel{fig:biopert1}{{9}{21}}
\@writefile{lof}{\contentsline {figure}{\numberline {10}{\ignorespaces On the left, a fragment of perturbed data-tree with Group '1'. On the right, the process diagram for a comparison. The second strongest group of perturbed data tree reflects weak correlation between members and the unsuccessful activation of transcription factor St4.\relax }}{22}}
\newlabel{fig:biopert2}{{10}{22}}
\@writefile{lof}{\contentsline {figure}{\numberline {11}{\ignorespaces An example of two flux map subgraphs mapping observables to related rules. The perturbed dataset with weights > 1,000,000, blue nodes denote observables, red nodes rule names.\relax }}{23}}
\newlabel{fig:obs2rule1}{{11}{23}}
\@writefile{lof}{\contentsline {figure}{\numberline {12}{\ignorespaces An example of two flux map subgraphs mapping observables to related rules. The perturbed dataset with weights > 5,000,000, blue nodes denote observables, red nodes rule names.\relax }}{23}}
\newlabel{fig:obs2rule2}{{12}{23}}
\@writefile{lof}{\contentsline {figure}{\numberline {13}{\ignorespaces Three top-scored groups of latent variables (G0, G1, G2) found with CorEx, both for perturbed (red) and unperturbed (blue) simulations and five flux map subgraphs with weights above (starting from left on x-axis) 10 000 000, 1 000 000, 100 000, 10 000, 1 000 units (two last sets in the perturbed set overlap). The comparison of changes in the number of intersecting observables with decrease of stringency in rule importance shows that perturbed system gives seemingly higher overlap between compared groups than the non-perturbed dataset.\relax }}{24}}
\newlabel{fig:fluxmap}{{13}{24}}
\@writefile{lof}{\contentsline {figure}{\numberline {14}{\ignorespaces The largest intersection between the network of most frequently executed rules and the latent groups is apparently more visible in the perturbed model, which confirms a lack of coherence in species behaviour.\relax }}{24}}
\newlabel{fig:fluxmapclust}{{14}{24}}
\citation{Marwan2008}
\citation{eckmann1987recurrence}
\citation{fraser1986independent}
\citation{hegger1999practical}
\@writefile{lof}{\contentsline {figure}{\numberline {15}{\ignorespaces Unperturbed model\relax }}{25}}
\newlabel{recurrence_plot02}{{15}{25}}
\@writefile{lof}{\contentsline {figure}{\numberline {16}{\ignorespaces Perturbed model\relax }}{25}}
\newlabel{recurrence_plot01}{{16}{25}}
\@writefile{lof}{\contentsline {figure}{\numberline {17}{\ignorespaces Unperturbed data\relax }}{26}}
\newlabel{}{{17}{26}}
\@writefile{lof}{\contentsline {figure}{\numberline {18}{\ignorespaces Perturbed model\relax }}{26}}
\newlabel{average_mutual_information_plots}{{18}{26}}
\@writefile{toc}{\contentsline {section}{\numberline {4}Conclusions}{26}}
\@writefile{lof}{\contentsline {figure}{\numberline {19}{\ignorespaces Unperturbed data\relax }}{27}}
\newlabel{Sample correlation integral plot 1}{{19}{27}}
\@writefile{lof}{\contentsline {figure}{\numberline {20}{\ignorespaces Perturbed data\relax }}{27}}
\newlabel{Sample correlation integral plot 2}{{20}{27}}
\bibdata{references}
\bibcite{Bardwell2007}{1}
\bibcite{Chylek2014}{2}
\bibcite{Danos2007}{3}
\bibcite{Dixit2014}{4}
\bibcite{eckmann1987recurrence}{5}
\bibcite{Faeder2009}{6}
\bibcite{Feret2012}{7}
\bibcite{fraser1986independent}{8}
\bibcite{shuyang2015MI}{9}
\bibcite{Gillespie2007}{10}
\bibcite{hegger1999practical}{11}
\bibcite{Hlavacek2006}{12}
\bibcite{Hogg2014}{13}
\bibcite{Jin2010}{14}
\bibcite{Agnes2014}{15}
\bibcite{kraskov2004estimating}{16}
\bibcite{Levchenko2000}{17}
\bibcite{Liu2012}{18}
\bibcite{Lopez2013}{19}
\bibcite{Majumdar2014}{20}
\bibcite{Marwan2008}{21}
\bibcite{pal2010estimation}{22}
\bibcite{Pepke2015}{23}
\bibcite{Suderman2013}{24}
\bibcite{suzuki2008approximating}{25}
\bibcite{toft2015islamists}{26}
\bibcite{NIPS2014_5580}{27}
\bibcite{steeg2015corex_theory}{28}
\bibcite{Yu2008}{29}
\bibstyle{plain}
