%!PS-Adobe-3.0
%%Creator: graphviz version 2.36.0 (20140111.2315)
%%Title: G
%%Pages: (atend)
%%BoundingBox: (atend)
%%EndComments
save
%%BeginProlog
/DotDict 200 dict def
DotDict begin

/setupLatin1 {
mark
/EncodingVector 256 array def
 EncodingVector 0

ISOLatin1Encoding 0 255 getinterval putinterval
EncodingVector 45 /hyphen put

% Set up ISO Latin 1 character encoding
/starnetISO {
        dup dup findfont dup length dict begin
        { 1 index /FID ne { def }{ pop pop } ifelse
        } forall
        /Encoding EncodingVector def
        currentdict end definefont
} def
/Times-Roman starnetISO def
/Times-Italic starnetISO def
/Times-Bold starnetISO def
/Times-BoldItalic starnetISO def
/Helvetica starnetISO def
/Helvetica-Oblique starnetISO def
/Helvetica-Bold starnetISO def
/Helvetica-BoldOblique starnetISO def
/Courier starnetISO def
/Courier-Oblique starnetISO def
/Courier-Bold starnetISO def
/Courier-BoldOblique starnetISO def
cleartomark
} bind def

%%BeginResource: procset graphviz 0 0
/coord-font-family /Times-Roman def
/default-font-family /Times-Roman def
/coordfont coord-font-family findfont 8 scalefont def

/InvScaleFactor 1.0 def
/set_scale {
       dup 1 exch div /InvScaleFactor exch def
       scale
} bind def

% styles
/solid { [] 0 setdash } bind def
/dashed { [9 InvScaleFactor mul dup ] 0 setdash } bind def
/dotted { [1 InvScaleFactor mul 6 InvScaleFactor mul] 0 setdash } bind def
/invis {/fill {newpath} def /stroke {newpath} def /show {pop newpath} def} bind def
/bold { 2 setlinewidth } bind def
/filled { } bind def
/unfilled { } bind def
/rounded { } bind def
/diagonals { } bind def
/tapered { } bind def

% hooks for setting color 
/nodecolor { sethsbcolor } bind def
/edgecolor { sethsbcolor } bind def
/graphcolor { sethsbcolor } bind def
/nopcolor {pop pop pop} bind def

/beginpage {	% i j npages
	/npages exch def
	/j exch def
	/i exch def
	/str 10 string def
	npages 1 gt {
		gsave
			coordfont setfont
			0 0 moveto
			(\() show i str cvs show (,) show j str cvs show (\)) show
		grestore
	} if
} bind def

/set_font {
	findfont exch
	scalefont setfont
} def

% draw text fitted to its expected width
/alignedtext {			% width text
	/text exch def
	/width exch def
	gsave
		width 0 gt {
			[] 0 setdash
			text stringwidth pop width exch sub text length div 0 text ashow
		} if
	grestore
} def

/boxprim {				% xcorner ycorner xsize ysize
		4 2 roll
		moveto
		2 copy
		exch 0 rlineto
		0 exch rlineto
		pop neg 0 rlineto
		closepath
} bind def

/ellipse_path {
	/ry exch def
	/rx exch def
	/y exch def
	/x exch def
	matrix currentmatrix
	newpath
	x y translate
	rx ry scale
	0 0 1 0 360 arc
	setmatrix
} bind def

/endpage { showpage } bind def
/showpage { } def

/layercolorseq
	[	% layer color sequence - darkest to lightest
		[0 0 0]
		[.2 .8 .8]
		[.4 .8 .8]
		[.6 .8 .8]
		[.8 .8 .8]
	]
def

/layerlen layercolorseq length def

/setlayer {/maxlayer exch def /curlayer exch def
	layercolorseq curlayer 1 sub layerlen mod get
	aload pop sethsbcolor
	/nodecolor {nopcolor} def
	/edgecolor {nopcolor} def
	/graphcolor {nopcolor} def
} bind def

/onlayer { curlayer ne {invis} if } def

/onlayers {
	/myupper exch def
	/mylower exch def
	curlayer mylower lt
	curlayer myupper gt
	or
	{invis} if
} def

/curlayer 0 def

%%EndResource
%%EndProlog
%%BeginSetup
14 default-font-family set_font
1 setmiterlimit
% /arrowlength 10 def
% /arrowwidth 5 def

% make sure pdfmark is harmless for PS-interpreters other than Distiller
/pdfmark where {pop} {userdict /pdfmark /cleartomark load put} ifelse
% make '<<' and '>>' safe on PS Level 1 devices
/languagelevel where {pop languagelevel}{1} ifelse
2 lt {
    userdict (<<) cvn ([) cvn load put
    userdict (>>) cvn ([) cvn load put
} if

%%EndSetup
setupLatin1
%%Page: 1 1
%%PageBoundingBox: 36 36 1507 1067
%%PageOrientation: Portrait
0 0 1 beginpage
gsave
36 36 1471 1031 boxprim clip newpath
1 1 set_scale 0 rotate 40 40 translate
% cluster0
gsave
1 setlinewidth
0 1 1 graphcolor
newpath 1272 926 moveto
1272 1015 lineto
1351 1015 lineto
1351 926 lineto
closepath stroke
0 0 0 graphcolor
14 /Times-Roman set_font
1280 999.8 moveto 63 (Pheromone) alignedtext
grestore
% cluster1
gsave
1 setlinewidth
0 1 1 graphcolor
newpath 1111 777 moveto
1111 918 lineto
1370 918 lineto
1370 777 lineto
closepath stroke
0 0 0 graphcolor
14 /Times-Roman set_font
1228 902.8 moveto 25 (Ste2) alignedtext
grestore
% cluster2
gsave
1 setlinewidth
0 1 1 graphcolor
newpath 1009 680 moveto
1009 769 lineto
1214 769 lineto
1214 680 lineto
closepath stroke
0 0 0 graphcolor
14 /Times-Roman set_font
1096.5 753.8 moveto 30 (Gpa1) alignedtext
grestore
% cluster3
gsave
1 setlinewidth
0 1 1 graphcolor
newpath 851 575 moveto
851 672 lineto
1139 672 lineto
1139 575 lineto
closepath stroke
0 0 0 graphcolor
14 /Times-Roman set_font
982.5 656.8 moveto 25 (Ste4) alignedtext
grestore
% cluster4
gsave
1 setlinewidth
0 1 1 graphcolor
newpath 1215 357 moveto
1215 458 lineto
1435 458 lineto
1435 357 lineto
closepath stroke
0 0 0 graphcolor
14 /Times-Roman set_font
1313 442.8 moveto 24 (Sst2) alignedtext
grestore
% cluster5
gsave
1 setlinewidth
0 1 1 graphcolor
newpath 630 472 moveto
630 561 lineto
696 561 lineto
696 472 lineto
closepath stroke
0 0 0 graphcolor
14 /Times-Roman set_font
647.5 545.8 moveto 31 (Ste20) alignedtext
grestore
% cluster6
gsave
1 setlinewidth
0 1 1 graphcolor
newpath 704 466 moveto
704 567 lineto
1226 567 lineto
1226 466 lineto
closepath stroke
0 0 0 graphcolor
14 /Times-Roman set_font
952.5 551.8 moveto 25 (Ste5) alignedtext
grestore
% cluster7
gsave
1 setlinewidth
0 1 1 graphcolor
newpath 776 357 moveto
776 458 lineto
1207 458 lineto
1207 357 lineto
closepath stroke
0 0 0 graphcolor
14 /Times-Roman set_font
976 442.8 moveto 31 (Ste11) alignedtext
grestore
% cluster8
gsave
1 setlinewidth
0 1 1 graphcolor
newpath 469 357 moveto
469 458 lineto
736 458 lineto
736 357 lineto
closepath stroke
0 0 0 graphcolor
14 /Times-Roman set_font
590 442.8 moveto 25 (Ste7) alignedtext
grestore
% cluster9
gsave
1 setlinewidth
0 1 1 graphcolor
newpath 720 253 moveto
720 348 lineto
947 348 lineto
947 253 lineto
closepath stroke
0 0 0 graphcolor
14 /Times-Roman set_font
820 332.8 moveto 27 (Fus3) alignedtext
grestore
% cluster10
gsave
1 setlinewidth
0 1 1 graphcolor
newpath 1037 253 moveto
1037 348 lineto
1264 348 lineto
1264 253 lineto
closepath stroke
0 0 0 graphcolor
14 /Times-Roman set_font
1136.5 332.8 moveto 28 (Kss1) alignedtext
grestore
% cluster11
gsave
1 setlinewidth
0 1 1 graphcolor
newpath 966 143 moveto
966 244 lineto
1044 244 lineto
1044 143 lineto
closepath stroke
0 0 0 graphcolor
14 /Times-Roman set_font
989 228.8 moveto 32 (Msg5) alignedtext
grestore
% cluster12
gsave
1 setlinewidth
0 1 1 graphcolor
newpath 879 143 moveto
879 244 lineto
957 244 lineto
957 143 lineto
closepath stroke
0 0 0 graphcolor
14 /Times-Roman set_font
908.5 228.8 moveto 19 (Ptp) alignedtext
grestore
% cluster13
gsave
1 setlinewidth
0 1 1 graphcolor
newpath 509 143 moveto
509 244 lineto
794 244 lineto
794 143 lineto
closepath stroke
0 0 0 graphcolor
14 /Times-Roman set_font
636 228.8 moveto 31 (Ste12) alignedtext
grestore
% cluster14
gsave
1 setlinewidth
0 1 1 graphcolor
newpath 904 21 moveto
904 122 lineto
1166 122 lineto
1166 21 lineto
closepath stroke
0 0 0 graphcolor
14 /Times-Roman set_font
1021 106.8 moveto 28 (Dig1) alignedtext
grestore
% cluster15
gsave
1 setlinewidth
0 1 1 graphcolor
newpath 1174 21 moveto
1174 122 lineto
1436 122 lineto
1436 21 lineto
closepath stroke
0 0 0 graphcolor
14 /Times-Roman set_font
1291 106.8 moveto 28 (Dig2) alignedtext
grestore
% cluster16
gsave
1 setlinewidth
0 1 1 graphcolor
newpath 8 8 moveto
8 135 lineto
112 135 lineto
112 8 lineto
closepath stroke
0 0 0 graphcolor
14 /Times-Roman set_font
31.5 119.8 moveto 57 (Ste2_gene) alignedtext
grestore
% cluster17
gsave
1 setlinewidth
0 1 1 graphcolor
newpath 120 8 moveto
120 135 lineto
224 135 lineto
224 8 lineto
closepath stroke
0 0 0 graphcolor
14 /Times-Roman set_font
141 119.8 moveto 62 (Gpa1_gene) alignedtext
grestore
% cluster18
gsave
1 setlinewidth
0 1 1 graphcolor
newpath 232 8 moveto
232 135 lineto
336 135 lineto
336 8 lineto
closepath stroke
0 0 0 graphcolor
14 /Times-Roman set_font
254 119.8 moveto 60 (Dig2_gene) alignedtext
grestore
% cluster19
gsave
1 setlinewidth
0 1 1 graphcolor
newpath 344 8 moveto
344 135 lineto
448 135 lineto
448 8 lineto
closepath stroke
0 0 0 graphcolor
14 /Times-Roman set_font
367.5 119.8 moveto 57 (Ste4_gene) alignedtext
grestore
% cluster20
gsave
1 setlinewidth
0 1 1 graphcolor
newpath 456 8 moveto
456 135 lineto
560 135 lineto
560 8 lineto
closepath stroke
0 0 0 graphcolor
14 /Times-Roman set_font
480 119.8 moveto 56 (Sst2_gene) alignedtext
grestore
% cluster21
gsave
1 setlinewidth
0 1 1 graphcolor
newpath 568 8 moveto
568 135 lineto
672 135 lineto
672 8 lineto
closepath stroke
0 0 0 graphcolor
14 /Times-Roman set_font
590.5 119.8 moveto 59 (Fus3_gene) alignedtext
grestore
% cluster22
gsave
1 setlinewidth
0 1 1 graphcolor
newpath 680 8 moveto
680 135 lineto
784 135 lineto
784 8 lineto
closepath stroke
0 0 0 graphcolor
14 /Times-Roman set_font
700 119.8 moveto 64 (Ste12_gene) alignedtext
grestore
% cluster23
gsave
1 setlinewidth
0 1 1 graphcolor
newpath 792 8 moveto
792 135 lineto
896 135 lineto
896 8 lineto
closepath stroke
0 0 0 graphcolor
14 /Times-Roman set_font
812 119.8 moveto 64 (Msg5_gene) alignedtext
grestore
% cluster24
gsave
1 setlinewidth
0 1 1 graphcolor
newpath 955 252 moveto
955 349 lineto
1029 349 lineto
1029 252 lineto
closepath stroke
0 0 0 graphcolor
14 /Times-Roman set_font
972 333.8 moveto 40 (Mekkp) alignedtext
grestore
% cluster25
gsave
1 setlinewidth
0 1 1 graphcolor
newpath 469 256 moveto
469 345 lineto
535 345 lineto
535 256 lineto
closepath stroke
0 0 0 graphcolor
14 /Times-Roman set_font
485.5 329.8 moveto 33 (Mekp) alignedtext
grestore
% 0.0
gsave
0.16471 1 1 nodecolor
1311 959 24.55 24.9 ellipse_path fill
1 setlinewidth
filled
0.16471 1 1 nodecolor
1311 959 24.55 24.9 ellipse_path stroke
0 0 0 nodecolor
14 /Times-Roman set_font
1300 955.3 moveto 22 (ste2) alignedtext
grestore
% 1.0
gsave
0.16471 1 1 nodecolor
1311 836 50.54 50.89 ellipse_path fill
1 setlinewidth
filled
0.16471 1 1 nodecolor
1311 836 50.54 50.89 ellipse_path stroke
0 0 0 nodecolor
14 /Times-Roman set_font
1280 832.3 moveto 62 (pheromone) alignedtext
grestore
% 0.0--1.0
gsave
1 setlinewidth
0 0 0 edgecolor
newpath 1311 934.09 moveto
1311 920.6 1311 903.2 1311 886.88 curveto
stroke
grestore
% 1.1
gsave
0.16471 1 1 nodecolor
1147 836 27.42 27.9 ellipse_path fill
1 setlinewidth
filled
0.16471 1 1 nodecolor
1147 836 27.42 27.9 ellipse_path stroke
0 0 0 nodecolor
14 /Times-Roman set_font
1133.5 832.3 moveto 27 (gpa1) alignedtext
grestore
% 2.1
gsave
0.16471 1 1 nodecolor
1109 713 24.55 24.9 ellipse_path fill
1 setlinewidth
filled
0.16471 1 1 nodecolor
1109 713 24.55 24.9 ellipse_path stroke
0 0 0 nodecolor
14 /Times-Roman set_font
1098 709.3 moveto 22 (ste2) alignedtext
grestore
% 1.1--2.1
gsave
1 setlinewidth
0 0 0 edgecolor
newpath 1138.85 809.04 moveto
1132.09 787.52 1122.57 757.21 1116.12 736.66 curveto
stroke
grestore
% 1.2
gsave
0.16471 1 1 nodecolor
1218 836 24.55 24.9 ellipse_path fill
1 setlinewidth
filled
0.16471 1 1 nodecolor
1218 836 24.55 24.9 ellipse_path stroke
0 0 0 nodecolor
14 /Times-Roman set_font
1207 832.3 moveto 22 (sst2) alignedtext
grestore
% 4.1
gsave
0.16471 1 1 nodecolor
1327 396 24.55 24.9 ellipse_path fill
1 setlinewidth
filled
0.16471 1 1 nodecolor
1327 396 24.55 24.9 ellipse_path stroke
0 0 0 nodecolor
14 /Times-Roman set_font
1316 392.3 moveto 22 (ste2) alignedtext
grestore
% 1.2--4.1
gsave
1 setlinewidth
0 0 0 edgecolor
newpath 1223.78 811.76 moveto
1242.66 735.89 1302.37 495.97 1321.23 420.18 curveto
stroke
grestore
% 2.0
gsave
0.33333 1 1 nodecolor
1179 713 27 18 ellipse_path fill
1 setlinewidth
filled
0.33333 1 1 nodecolor
1179 713 27 18 ellipse_path stroke
0 0 0 nodecolor
14 /Times-Roman set_font
1169 709.3 moveto 20 (nuc) alignedtext
grestore
% 2.2
gsave
0.16471 1 1 nodecolor
1042 713 24.55 24.9 ellipse_path fill
1 setlinewidth
filled
0.16471 1 1 nodecolor
1042 713 24.55 24.9 ellipse_path stroke
0 0 0 nodecolor
14 /Times-Roman set_font
1031 709.3 moveto 22 (ste4) alignedtext
grestore
% 3.1
gsave
0.16471 1 1 nodecolor
1031 612 27.42 27.9 ellipse_path fill
1 setlinewidth
filled
0.16471 1 1 nodecolor
1031 612 27.42 27.9 ellipse_path stroke
0 0 0 nodecolor
14 /Times-Roman set_font
1017.5 608.3 moveto 27 (gpa1) alignedtext
grestore
% 2.2--3.1
gsave
1 setlinewidth
0 0 0 edgecolor
newpath 1039.37 688.29 moveto
1037.75 673.76 1035.68 655.11 1034 640.02 curveto
stroke
grestore
% 3.0
gsave
0.33333 1 1 nodecolor
1104 612 27 18 ellipse_path fill
1 setlinewidth
filled
0.33333 1 1 nodecolor
1104 612 27 18 ellipse_path stroke
0 0 0 nodecolor
14 /Times-Roman set_font
1091.5 608.3 moveto 25 (state) alignedtext
grestore
% 3.2
gsave
0.16471 1 1 nodecolor
888 612 29.37 29.5 ellipse_path fill
1 setlinewidth
filled
0.16471 1 1 nodecolor
888 612 29.37 29.5 ellipse_path stroke
0 0 0 nodecolor
14 /Times-Roman set_font
873.5 608.3 moveto 29 (ste20) alignedtext
grestore
% 5.0
gsave
0.16471 1 1 nodecolor
663 505 24.55 24.9 ellipse_path fill
1 setlinewidth
filled
0.16471 1 1 nodecolor
663 505 24.55 24.9 ellipse_path stroke
0 0 0 nodecolor
14 /Times-Roman set_font
652 501.3 moveto 22 (ste4) alignedtext
grestore
% 3.2--5.0
gsave
1 setlinewidth
0 0 0 edgecolor
newpath 858.72 610.96 moveto
819.11 609.5 747.89 601.75 700 567 curveto
686.77 557.4 677.34 541.48 671.32 528.31 curveto
stroke
grestore
% 3.3
gsave
0.16471 1 1 nodecolor
960 612 24.55 24.9 ellipse_path fill
1 setlinewidth
filled
0.16471 1 1 nodecolor
960 612 24.55 24.9 ellipse_path stroke
0 0 0 nodecolor
14 /Times-Roman set_font
949 608.3 moveto 22 (ste5) alignedtext
grestore
% 6.3
gsave
0.16471 1 1 nodecolor
960 505 24.55 24.9 ellipse_path fill
1 setlinewidth
filled
0.16471 1 1 nodecolor
960 505 24.55 24.9 ellipse_path stroke
0 0 0 nodecolor
14 /Times-Roman set_font
949 501.3 moveto 22 (ste4) alignedtext
grestore
% 3.3--6.3
gsave
1 setlinewidth
0 0 0 edgecolor
newpath 960 587.17 moveto
960 569.99 960 546.89 960 529.73 curveto
stroke
grestore
% 4.0
gsave
0.33333 1 1 nodecolor
1398 396 28.4 18 ellipse_path fill
1 setlinewidth
filled
0.33333 1 1 nodecolor
1398 396 28.4 18 ellipse_path stroke
0 0 0 nodecolor
14 /Times-Roman set_font
1384 392.3 moveto 28 (S539) alignedtext
grestore
% 4.2
gsave
0.16471 1 1 nodecolor
1254 396 30.32 30.59 ellipse_path fill
1 setlinewidth
filled
0.16471 1 1 nodecolor
1254 396 30.32 30.59 ellipse_path stroke
0 0 0 nodecolor
14 /Times-Roman set_font
1238.5 392.3 moveto 31 (mapk) alignedtext
grestore
% 9.2
gsave
0.16471 1 1 nodecolor
756 289 27.42 27.9 ellipse_path fill
1 setlinewidth
filled
0.16471 1 1 nodecolor
756 289 27.42 27.9 ellipse_path stroke
0 0 0 nodecolor
14 /Times-Roman set_font
742.5 285.3 moveto 27 (dock) alignedtext
grestore
% 4.2--9.2
gsave
1 setlinewidth
0 0 0 edgecolor
newpath 1234.18 372.29 moveto
1227.5 366.17 1219.54 360.33 1211 357 curveto
1189.31 348.55 812.19 360.59 792 349 curveto
779.3 341.71 770.53 327.97 764.83 315.58 curveto
stroke
grestore
% 10.2
gsave
0.16471 1 1 nodecolor
1073 289 27.42 27.9 ellipse_path fill
1 setlinewidth
filled
0.16471 1 1 nodecolor
1073 289 27.42 27.9 ellipse_path stroke
0 0 0 nodecolor
14 /Times-Roman set_font
1059.5 285.3 moveto 27 (dock) alignedtext
grestore
% 4.2--10.2
gsave
1 setlinewidth
0 0 0 edgecolor
newpath 1234.06 372.6 moveto
1227.37 366.49 1219.44 360.58 1211 357 curveto
1190.07 348.12 1128.38 360.9 1109 349 curveto
1096.63 341.4 1087.91 327.81 1082.15 315.58 curveto
stroke
grestore
% 6.0
gsave
0.33333 1 1 nodecolor
1191 505 27 18 ellipse_path fill
1 setlinewidth
filled
0.33333 1 1 nodecolor
1191 505 27 18 ellipse_path stroke
0 0 0 nodecolor
14 /Times-Roman set_font
1182.5 501.3 moveto 17 (loc) alignedtext
grestore
% 6.1
gsave
0.33333 1 1 nodecolor
1117 505 29.37 18 ellipse_path fill
1 setlinewidth
filled
0.33333 1 1 nodecolor
1117 505 29.37 18 ellipse_path stroke
0 0 0 nodecolor
14 /Times-Roman set_font
1102.5 501.3 moveto 29 (T287) alignedtext
grestore
% 6.2
gsave
0.16471 1 1 nodecolor
1027 505 24.55 24.9 ellipse_path fill
1 setlinewidth
filled
0.16471 1 1 nodecolor
1027 505 24.55 24.9 ellipse_path stroke
0 0 0 nodecolor
14 /Times-Roman set_font
1016 501.3 moveto 22 (ste5) alignedtext
grestore
% 6.2--6.2
gsave
1 setlinewidth
0 0 0 edgecolor
newpath 1044.26 522.74 moveto
1056.65 528.51 1069 522.6 1069 505 curveto
1069 487.4 1056.65 481.49 1044.26 487.26 curveto
stroke
grestore
% 6.4
gsave
0.16471 1 1 nodecolor
888 505 29.37 29.5 ellipse_path fill
1 setlinewidth
filled
0.16471 1 1 nodecolor
888 505 29.37 29.5 ellipse_path stroke
0 0 0 nodecolor
14 /Times-Roman set_font
873.5 501.3 moveto 29 (ste11) alignedtext
grestore
% 7.2
gsave
0.16471 1 1 nodecolor
888 396 24.55 24.9 ellipse_path fill
1 setlinewidth
filled
0.16471 1 1 nodecolor
888 396 24.55 24.9 ellipse_path stroke
0 0 0 nodecolor
14 /Times-Roman set_font
877 392.3 moveto 22 (ste5) alignedtext
grestore
% 6.4--7.2
gsave
1 setlinewidth
0 0 0 edgecolor
newpath 888 475.61 moveto
888 458.52 888 437.01 888 420.82 curveto
stroke
grestore
% 6.5
gsave
0.16471 1 1 nodecolor
737 505 24.55 24.9 ellipse_path fill
1 setlinewidth
filled
0.16471 1 1 nodecolor
737 505 24.55 24.9 ellipse_path stroke
0 0 0 nodecolor
14 /Times-Roman set_font
726 501.3 moveto 22 (ste7) alignedtext
grestore
% 8.1
gsave
0.16471 1 1 nodecolor
502 396 24.55 24.9 ellipse_path fill
1 setlinewidth
filled
0.16471 1 1 nodecolor
502 396 24.55 24.9 ellipse_path stroke
0 0 0 nodecolor
14 /Times-Roman set_font
491 392.3 moveto 22 (ste5) alignedtext
grestore
% 6.5--8.1
gsave
1 setlinewidth
0 0 0 edgecolor
newpath 722.94 484.28 moveto
716.77 477.22 708.9 470.01 700 466 curveto
666.53 450.91 566.07 477.55 535 458 curveto
521.55 449.53 513.19 433.58 508.26 420.11 curveto
stroke
grestore
% 6.6
gsave
0.16471 1 1 nodecolor
810 505 30.32 30.59 ellipse_path fill
1 setlinewidth
filled
0.16471 1 1 nodecolor
810 505 30.32 30.59 ellipse_path stroke
0 0 0 nodecolor
14 /Times-Roman set_font
794.5 501.3 moveto 31 (mapk) alignedtext
grestore
% 6.6--9.2
gsave
1 setlinewidth
0 0 0 edgecolor
newpath 788.48 483.32 moveto
782.1 475.95 775.81 467.19 772 458 curveto
752.66 411.31 752.12 351.26 753.82 317.06 curveto
stroke
grestore
% 6.6--10.2
gsave
1 setlinewidth
0 0 0 edgecolor
newpath 828.98 480.49 moveto
835.03 474.66 842.19 469.18 850 466 curveto
865.15 459.83 1427.51 469.65 1439 458 curveto
1470.52 426.04 1470.35 389.12 1439 357 curveto
1426.19 343.88 1124.88 358.17 1109 349 curveto
1096.32 341.68 1087.55 327.94 1081.84 315.56 curveto
stroke
grestore
% 7.0
gsave
0.33333 1 1 nodecolor
1147 396 51.49 18 ellipse_path fill
1 setlinewidth
filled
0.33333 1 1 nodecolor
1147 396 51.49 18 ellipse_path stroke
0 0 0 nodecolor
14 /Times-Roman set_font
1115 392.3 moveto 64 (degradation) alignedtext
grestore
% 7.1
gsave
0.33333 1 1 nodecolor
1004 396 73.17 18 ellipse_path fill
1 setlinewidth
filled
0.33333 1 1 nodecolor
1004 396 73.17 18 ellipse_path stroke
0 0 0 nodecolor
14 /Times-Roman set_font
955.5 392.3 moveto 97 (S302_S306_S307) alignedtext
grestore
% 24.0
gsave
0.16471 1 1 nodecolor
992 289 29.37 29.5 ellipse_path fill
1 setlinewidth
filled
0.16471 1 1 nodecolor
992 289 29.37 29.5 ellipse_path stroke
0 0 0 nodecolor
14 /Times-Roman set_font
977.5 285.3 moveto 29 (ste11) alignedtext
grestore
% 7.2--24.0
gsave
1 setlinewidth
0 0 0 edgecolor
newpath 901.78 375.46 moveto
907.37 368.76 914.33 361.76 922 357 curveto
933.36 349.95 940.09 356.73 951 349 curveto
963.01 340.49 972.66 327.29 979.57 315.53 curveto
stroke
grestore
% 7.3
gsave
0.16471 1 1 nodecolor
815 396 30.32 30.59 ellipse_path fill
1 setlinewidth
filled
0.16471 1 1 nodecolor
815 396 30.32 30.59 ellipse_path stroke
0 0 0 nodecolor
14 /Times-Roman set_font
799.5 392.3 moveto 31 (mapk) alignedtext
grestore
% 7.3--9.2
gsave
1 setlinewidth
0 0 0 edgecolor
newpath 800.42 369.04 moveto
790.86 352.04 778.47 329.99 769.21 313.51 curveto
stroke
grestore
% 7.3--10.2
gsave
1 setlinewidth
0 0 0 edgecolor
newpath 833.48 371.65 moveto
839.37 365.83 846.37 360.3 854 357 curveto
890.54 341.18 998.25 368.43 1033 349 curveto
1046.29 341.57 1056.04 327.66 1062.59 315.21 curveto
stroke
grestore
% 8.0
gsave
0.33333 1 1 nodecolor
676 396 51.49 18 ellipse_path fill
1 setlinewidth
filled
0.33333 1 1 nodecolor
676 396 51.49 18 ellipse_path stroke
0 0 0 nodecolor
14 /Times-Roman set_font
644 392.3 moveto 64 (S359_T363) alignedtext
grestore
% 25.0
gsave
0.16471 1 1 nodecolor
502 289 24.55 24.9 ellipse_path fill
1 setlinewidth
filled
0.16471 1 1 nodecolor
502 289 24.55 24.9 ellipse_path stroke
0 0 0 nodecolor
14 /Times-Roman set_font
491 285.3 moveto 22 (ste7) alignedtext
grestore
% 8.1--25.0
gsave
1 setlinewidth
0 0 0 edgecolor
newpath 502 371.17 moveto
502 353.99 502 330.89 502 313.73 curveto
stroke
grestore
% 8.2
gsave
0.16471 1 1 nodecolor
575 396 30.32 30.59 ellipse_path fill
1 setlinewidth
filled
0.16471 1 1 nodecolor
575 396 30.32 30.59 ellipse_path stroke
0 0 0 nodecolor
14 /Times-Roman set_font
559.5 392.3 moveto 31 (mapk) alignedtext
grestore
% 8.2--9.2
gsave
1 setlinewidth
0 0 0 edgecolor
newpath 595.51 373.15 moveto
601.47 367.48 608.21 361.66 615 357 curveto
652.31 331.38 700.95 310.67 730.25 299.37 curveto
stroke
grestore
% 8.2--10.2
gsave
1 setlinewidth
0 0 0 edgecolor
newpath 593.99 371.52 moveto
600.04 365.69 607.2 360.2 615 357 curveto
636.49 348.18 1012.58 360.08 1033 349 curveto
1046.49 341.68 1056.29 327.61 1062.82 315.05 curveto
stroke
grestore
% 9.0
gsave
0.33333 1 1 nodecolor
910 289 29.37 18 ellipse_path fill
1 setlinewidth
filled
0.33333 1 1 nodecolor
910 289 29.37 18 ellipse_path stroke
0 0 0 nodecolor
14 /Times-Roman set_font
895.5 285.3 moveto 29 (T180) alignedtext
grestore
% 9.1
gsave
0.33333 1 1 nodecolor
832 289 30.32 18 ellipse_path fill
1 setlinewidth
filled
0.33333 1 1 nodecolor
832 289 30.32 18 ellipse_path stroke
0 0 0 nodecolor
14 /Times-Roman set_font
816.5 285.3 moveto 31 (Y182) alignedtext
grestore
% 11.0
gsave
0.16471 1 1 nodecolor
1005 182 30.32 30.59 ellipse_path fill
1 setlinewidth
filled
0.16471 1 1 nodecolor
1005 182 30.32 30.59 ellipse_path stroke
0 0 0 nodecolor
14 /Times-Roman set_font
989.5 178.3 moveto 31 (mapk) alignedtext
grestore
% 9.2--11.0
gsave
1 setlinewidth
0 0 0 edgecolor
newpath 772.6 266.28 moveto
778.12 260.62 784.72 255.22 792 252 curveto
826.39 236.79 927.94 261.91 961 244 curveto
974.78 236.53 985.31 222.66 992.6 210.03 curveto
stroke
grestore
% 12.0
gsave
0.16471 1 1 nodecolor
918 182 30.32 30.59 ellipse_path fill
1 setlinewidth
filled
0.16471 1 1 nodecolor
918 182 30.32 30.59 ellipse_path stroke
0 0 0 nodecolor
14 /Times-Roman set_font
902.5 178.3 moveto 31 (mapk) alignedtext
grestore
% 9.2--12.0
gsave
1 setlinewidth
0 0 0 edgecolor
newpath 772.71 266.52 moveto
778.23 260.87 784.81 255.41 792 252 curveto
824.29 236.7 840.85 261.51 872 244 curveto
885.87 236.2 896.85 222.31 904.59 209.75 curveto
stroke
grestore
% 13.3
gsave
0.16471 1 1 nodecolor
548 182 30.32 30.59 ellipse_path fill
1 setlinewidth
filled
0.16471 1 1 nodecolor
548 182 30.32 30.59 ellipse_path stroke
0 0 0 nodecolor
14 /Times-Roman set_font
532.5 178.3 moveto 31 (mapk) alignedtext
grestore
% 9.2--13.3
gsave
1 setlinewidth
0 0 0 edgecolor
newpath 728.44 286.77 moveto
692.9 283.94 630.6 274.62 588 244 curveto
576.07 235.43 566.74 222.1 560.1 210.08 curveto
stroke
grestore
% 14.2
gsave
0.16471 1 1 nodecolor
1019 60 30.32 30.59 ellipse_path fill
1 setlinewidth
filled
0.16471 1 1 nodecolor
1019 60 30.32 30.59 ellipse_path stroke
0 0 0 nodecolor
14 /Times-Roman set_font
1003.5 56.3 moveto 31 (mapk) alignedtext
grestore
% 9.2--14.2
gsave
1 setlinewidth
0 0 0 edgecolor
newpath 775.51 268.84 moveto
784.68 259.58 794.39 249.34 798 244 curveto
825.64 203.14 803.33 170.9 844 143 curveto
868.78 126 953.65 151.15 979 135 curveto
995.01 124.8 1005.08 105.88 1011.11 89.72 curveto
stroke
grestore
% 15.2
gsave
0.16471 1 1 nodecolor
1289 60 30.32 30.59 ellipse_path fill
1 setlinewidth
filled
0.16471 1 1 nodecolor
1289 60 30.32 30.59 ellipse_path stroke
0 0 0 nodecolor
14 /Times-Roman set_font
1273.5 56.3 moveto 31 (mapk) alignedtext
grestore
% 9.2--15.2
gsave
1 setlinewidth
0 0 0 edgecolor
newpath 772.9 266.9 moveto
778.42 261.26 784.96 255.71 792 252 curveto
809.2 242.94 819.99 256.36 835 244 curveto
872.27 213.31 835.36 170.56 875 143 curveto
892.06 131.14 1231.26 145.83 1249 135 curveto
1265.33 125.03 1275.42 105.88 1281.38 89.57 curveto
stroke
grestore
% 10.0
gsave
0.33333 1 1 nodecolor
1227 289 29.37 18 ellipse_path fill
1 setlinewidth
filled
0.33333 1 1 nodecolor
1227 289 29.37 18 ellipse_path stroke
0 0 0 nodecolor
14 /Times-Roman set_font
1212.5 285.3 moveto 29 (T183) alignedtext
grestore
% 10.1
gsave
0.33333 1 1 nodecolor
1149 289 30.32 18 ellipse_path fill
1 setlinewidth
filled
0.33333 1 1 nodecolor
1149 289 30.32 18 ellipse_path stroke
0 0 0 nodecolor
14 /Times-Roman set_font
1133.5 285.3 moveto 31 (Y185) alignedtext
grestore
% 10.2--11.0
gsave
1 setlinewidth
0 0 0 edgecolor
newpath 1058.25 265.22 moveto
1047.31 248.33 1032.41 225.32 1021.15 207.94 curveto
stroke
grestore
% 10.2--12.0
gsave
1 setlinewidth
0 0 0 edgecolor
newpath 1054.84 267.32 moveto
1048.53 261.41 1041.01 255.6 1033 252 curveto
1004.04 238.98 989.41 260.03 962 244 curveto
948.59 236.16 938.13 222.42 930.79 209.97 curveto
stroke
grestore
% 10.2--13.3
gsave
1 setlinewidth
0 0 0 edgecolor
newpath 1055.43 267.24 moveto
1049.06 261.17 1041.34 255.29 1033 252 curveto
1010 242.93 609.65 255.95 588 244 curveto
574.92 236.78 565.4 223.26 558.93 210.77 curveto
stroke
grestore
% 10.2--14.2
gsave
1 setlinewidth
0 0 0 edgecolor
newpath 1069.73 260.99 moveto
1065.87 231.64 1058.58 183.54 1048 143 curveto
1043.19 124.59 1036.09 104.44 1030.12 88.72 curveto
stroke
grestore
% 10.2--15.2
gsave
1 setlinewidth
0 0 0 edgecolor
newpath 1092.12 268.25 moveto
1097.49 262.88 1103.39 257.13 1109 252 curveto
1168.84 197.28 1197.69 197.79 1249 135 curveto
1260.46 120.98 1270.2 103.18 1277.2 88.55 curveto
stroke
grestore
% 13.0
gsave
0.16471 1 1 nodecolor
620 182 23.1 23.3 ellipse_path fill
1 setlinewidth
filled
0.16471 1 1 nodecolor
620 182 23.1 23.3 ellipse_path stroke
0 0 0 nodecolor
14 /Times-Roman set_font
610 178.3 moveto 20 (dna) alignedtext
grestore
% 16.0
gsave
0.16471 1 1 nodecolor
60 60 43.32 43.59 ellipse_path fill
1 setlinewidth
filled
0.16471 1 1 nodecolor
60 60 43.32 43.59 ellipse_path stroke
0 0 0 nodecolor
14 /Times-Roman set_font
34.5 56.3 moveto 51 (promoter) alignedtext
grestore
% 13.0--16.0
gsave
1 setlinewidth
0 0 0 edgecolor
newpath 608.24 161.58 moveto
602.76 154.37 595.55 146.99 587 143 curveto
563.28 131.94 139.33 146.85 116 135 curveto
100.63 127.19 88.33 112.98 79.21 99.09 curveto
stroke
grestore
% 17.0
gsave
0.16471 1 1 nodecolor
172 60 43.32 43.59 ellipse_path fill
1 setlinewidth
filled
0.16471 1 1 nodecolor
172 60 43.32 43.59 ellipse_path stroke
0 0 0 nodecolor
14 /Times-Roman set_font
146.5 56.3 moveto 51 (promoter) alignedtext
grestore
% 13.0--17.0
gsave
1 setlinewidth
0 0 0 edgecolor
newpath 608.23 161.6 moveto
602.75 154.4 595.54 147.01 587 143 curveto
550.88 126.04 263.52 153.16 228 135 curveto
212.65 127.15 200.35 112.94 191.23 99.05 curveto
stroke
grestore
% 18.0
gsave
0.16471 1 1 nodecolor
284 60 43.32 43.59 ellipse_path fill
1 setlinewidth
filled
0.16471 1 1 nodecolor
284 60 43.32 43.59 ellipse_path stroke
0 0 0 nodecolor
14 /Times-Roman set_font
258.5 56.3 moveto 51 (promoter) alignedtext
grestore
% 13.0--18.0
gsave
1 setlinewidth
0 0 0 edgecolor
newpath 608.21 161.65 moveto
602.73 154.45 595.52 147.05 587 143 curveto
562.2 131.2 364.39 147.62 340 135 curveto
324.83 127.15 312.63 113.11 303.53 99.36 curveto
stroke
grestore
% 19.0
gsave
0.16471 1 1 nodecolor
396 60 43.32 43.59 ellipse_path fill
1 setlinewidth
filled
0.16471 1 1 nodecolor
396 60 43.32 43.59 ellipse_path stroke
0 0 0 nodecolor
14 /Times-Roman set_font
370.5 56.3 moveto 51 (promoter) alignedtext
grestore
% 13.0--19.0
gsave
1 setlinewidth
0 0 0 edgecolor
newpath 608.15 161.76 moveto
602.66 154.58 595.47 147.17 587 143 curveto
560.04 129.73 478.5 149.17 452 135 curveto
436.94 126.95 424.75 112.87 415.64 99.15 curveto
stroke
grestore
% 20.0
gsave
0.16471 1 1 nodecolor
508 60 43.32 43.59 ellipse_path fill
1 setlinewidth
filled
0.16471 1 1 nodecolor
508 60 43.32 43.59 ellipse_path stroke
0 0 0 nodecolor
14 /Times-Roman set_font
482.5 56.3 moveto 51 (promoter) alignedtext
grestore
% 13.0--20.0
gsave
1 setlinewidth
0 0 0 edgecolor
newpath 606.87 162.11 moveto
601.38 155.32 594.52 148.1 587 143 curveto
578.04 136.93 572.75 141.37 564 135 curveto
550.45 125.14 538.67 111.08 529.45 97.86 curveto
stroke
grestore
% 21.0
gsave
0.16471 1 1 nodecolor
620 60 43.32 43.59 ellipse_path fill
1 setlinewidth
filled
0.16471 1 1 nodecolor
620 60 43.32 43.59 ellipse_path stroke
0 0 0 nodecolor
14 /Times-Roman set_font
594.5 56.3 moveto 51 (promoter) alignedtext
grestore
% 13.0--21.0
gsave
1 setlinewidth
0 0 0 edgecolor
newpath 620 158.43 moveto
620 143.09 620 122.3 620 103.88 curveto
stroke
grestore
% 22.0
gsave
0.16471 1 1 nodecolor
732 60 43.32 43.59 ellipse_path fill
1 setlinewidth
filled
0.16471 1 1 nodecolor
732 60 43.32 43.59 ellipse_path stroke
0 0 0 nodecolor
14 /Times-Roman set_font
706.5 56.3 moveto 51 (promoter) alignedtext
grestore
% 13.0--22.0
gsave
1 setlinewidth
0 0 0 edgecolor
newpath 632.6 162.05 moveto
637.91 155.25 644.58 148.04 652 143 curveto
661.3 136.69 666.86 141.55 676 135 curveto
689.61 125.23 701.41 111.19 710.62 97.95 curveto
stroke
grestore
% 23.0
gsave
0.16471 1 1 nodecolor
844 60 43.32 43.59 ellipse_path fill
1 setlinewidth
filled
0.16471 1 1 nodecolor
844 60 43.32 43.59 ellipse_path stroke
0 0 0 nodecolor
14 /Times-Roman set_font
818.5 56.3 moveto 51 (promoter) alignedtext
grestore
% 13.0--23.0
gsave
1 setlinewidth
0 0 0 edgecolor
newpath 631.67 161.37 moveto
636.94 154.32 643.83 147.1 652 143 curveto
679.06 129.43 761.3 149.27 788 135 curveto
803.06 126.95 815.25 112.88 824.37 99.15 curveto
stroke
grestore
% 13.1
gsave
0.16471 1 1 nodecolor
688 182 26.47 26.8 ellipse_path fill
1 setlinewidth
filled
0.16471 1 1 nodecolor
688 182 26.47 26.8 ellipse_path stroke
0 0 0 nodecolor
14 /Times-Roman set_font
675.5 178.3 moveto 25 (dig1) alignedtext
grestore
% 14.1
gsave
0.16471 1 1 nodecolor
941 60 29.37 29.5 ellipse_path fill
1 setlinewidth
filled
0.16471 1 1 nodecolor
941 60 29.37 29.5 ellipse_path stroke
0 0 0 nodecolor
14 /Times-Roman set_font
926.5 56.3 moveto 29 (ste12) alignedtext
grestore
% 13.1--14.1
gsave
1 setlinewidth
0 0 0 edgecolor
newpath 702.43 159.68 moveto
708.04 153.15 715.03 146.71 723 143 curveto
758.69 126.38 866.54 155.75 900 135 curveto
916.73 124.63 927.18 104.84 933.34 88.33 curveto
stroke
grestore
% 13.2
gsave
0.16471 1 1 nodecolor
759 182 26.47 26.8 ellipse_path fill
1 setlinewidth
filled
0.16471 1 1 nodecolor
759 182 26.47 26.8 ellipse_path stroke
0 0 0 nodecolor
14 /Times-Roman set_font
746.5 178.3 moveto 25 (dig2) alignedtext
grestore
% 15.1
gsave
0.16471 1 1 nodecolor
1211 60 29.37 29.5 ellipse_path fill
1 setlinewidth
filled
0.16471 1 1 nodecolor
1211 60 29.37 29.5 ellipse_path stroke
0 0 0 nodecolor
14 /Times-Roman set_font
1196.5 56.3 moveto 29 (ste12) alignedtext
grestore
% 13.2--15.1
gsave
1 setlinewidth
0 0 0 edgecolor
newpath 781.59 167.93 moveto
798.24 159.05 821.77 148.03 844 143 curveto
861.67 139 1154.51 144.39 1170 135 curveto
1186.83 124.8 1197.28 105.01 1203.41 88.45 curveto
stroke
grestore
% 14.0
gsave
0.33333 1 1 nodecolor
1113 60 45.24 18 ellipse_path fill
1 setlinewidth
filled
0.33333 1 1 nodecolor
1113 60 45.24 18 ellipse_path stroke
0 0 0 nodecolor
14 /Times-Roman set_font
1086 56.3 moveto 54 (activation) alignedtext
grestore
% 15.0
gsave
0.33333 1 1 nodecolor
1383 60 45.24 18 ellipse_path fill
1 setlinewidth
filled
0.33333 1 1 nodecolor
1383 60 45.24 18 ellipse_path stroke
0 0 0 nodecolor
14 /Times-Roman set_font
1356 56.3 moveto 54 (activation) alignedtext
grestore
endpage
showpage
grestore
%%PageTrailer
%%EndPage: 1
%%Trailer
%%Pages: 1
%%BoundingBox: 36 36 1507 1067
end
restore
%%EOF
